ahb-lite/SoC_tb.vcd
$date
	Sun Sep 22 11:39:09 2024
$end
$version
	Icarus Verilog
$end
$timescale
	1s
$end
$scope module SoC_tb $end
$var wire 32 ! register_2 [31:0] $end
$var wire 32 " register_1 [31:0] $end
$var wire 32 # register_0 [31:0] $end
$var reg 1 $ HCLK $end
$var reg 1 % HRESETn $end
$scope module MUV $end
$var wire 1 $ HCLK $end
$var wire 1 % HRESETn $end
$var wire 1 & P0_HREADYOUT $end
$var wire 1 ' S0_HREADYOUT $end
$var wire 1 ( S1_HREADYOUT $end
$var wire 32 ) register_2 [31:0] $end
$var wire 32 * register_1 [31:0] $end
$var wire 32 + register_0 [31:0] $end
$var wire 1 , S1_HSEL $end
$var wire 32 - S1_HRDATA [31:0] $end
$var wire 1 . S0_HSEL $end
$var wire 32 / S0_HRDATA [31:0] $end
$var wire 1 0 P0_HSEL $end
$var wire 32 1 P0_HRDATA [31:0] $end
$var wire 1 2 HWRITE $end
$var wire 32 3 HWDATA [31:0] $end
$var wire 2 4 HTRANS [1:0] $end
$var wire 3 5 HSIZE [2:0] $end
$var wire 1 6 HREADY $end
$var wire 32 7 HRDATA [31:0] $end
$var wire 32 8 HADDR [31:0] $end
$scope module M $end
$var wire 1 $ HCLK $end
$var wire 1 % HRESETn $end
$var wire 1 6 HREADY $end
$var wire 32 9 HRDATA [31:0] $end
$var reg 32 : HADDR [31:0] $end
$var reg 3 ; HSIZE [2:0] $end
$var reg 2 < HTRANS [1:0] $end
$var reg 32 = HWDATA [31:0] $end
$var reg 1 2 HWRITE $end
$scope task ahbl_read $end
$var reg 32 > addr [31:0] $end
$var reg 3 ? size [2:0] $end
$upscope $end
$scope task ahbl_w_write $end
$var reg 32 @ addr [31:0] $end
$var reg 32 A data [31:0] $end
$var reg 3 B size [2:0] $end
$upscope $end
$upscope $end
$scope module P0 $end
$var wire 32 C HADDR [31:0] $end
$var wire 1 $ HCLK $end
$var wire 1 & HREADYOUT $end
$var wire 1 % HRESETn $end
$var wire 2 D HTRANS [1:0] $end
$var wire 32 E HWDATA [31:0] $end
$var wire 1 2 HWRITE $end
$var wire 1 F ahbl_we $end
$var wire 32 G register_0 [31:0] $end
$var wire 32 H register_1 [31:0] $end
$var wire 32 I register_2 [31:0] $end
$var wire 1 0 HSEL $end
$var wire 1 6 HREADY $end
$var reg 32 J HADDR_d [31:0] $end
$var reg 32 K HRDATA [31:0] $end
$var reg 1 L HSEL_d $end
$var reg 2 M HTRANS_d [1:0] $end
$var reg 1 N HWRITE_d $end
$upscope $end
$scope module S $end
$var wire 32 O HADDR [31:0] $end
$var wire 1 $ HCLK $end
$var wire 1 % HRESETn $end
$var wire 2 P HTRANS [1:0] $end
$var wire 32 Q P0_HRDATA [31:0] $end
$var wire 1 & P0_HREADYOUT $end
$var wire 1 ' S0_HREADYOUT $end
$var wire 1 ( S1_HREADYOUT $end
$var wire 1 , S1_HSEL $end
$var wire 32 R S1_HRDATA [31:0] $end
$var wire 1 . S0_HSEL $end
$var wire 32 S S0_HRDATA [31:0] $end
$var wire 1 0 P0_HSEL $end
$var wire 1 6 HREADY $end
$var wire 32 T HRDATA [31:0] $end
$var reg 3 U sel [2:0] $end
$var reg 3 V sel_d [2:0] $end
$upscope $end
$scope module S0 $end
$var wire 32 W HADDR [31:0] $end
$var wire 1 $ HCLK $end
$var wire 1 6 HREADY $end
$var wire 1 ' HREADYOUT $end
$var wire 1 % HRESETn $end
$var wire 1 . HSEL $end
$var wire 3 X HSIZE [2:0] $end
$var wire 2 Y HTRANS [1:0] $end
$var wire 32 Z HWDATA [31:0] $end
$var wire 1 2 HWRITE $end
$var wire 1 [ ahbl_we $end
$var reg 32 \ HADDR_d [31:0] $end
$var reg 32 ] HRDATA [31:0] $end
$var reg 1 ^ HSEL_d $end
$var reg 3 _ HSIZE_d [2:0] $end
$var reg 2 ` HTRANS_d [1:0] $end
$var reg 1 a HWRITE_d $end
$upscope $end
$scope module S1 $end
$var wire 32 b HADDR [31:0] $end
$var wire 1 $ HCLK $end
$var wire 1 6 HREADY $end
$var wire 1 ( HREADYOUT $end
$var wire 1 % HRESETn $end
$var wire 1 , HSEL $end
$var wire 3 c HSIZE [2:0] $end
$var wire 2 d HTRANS [1:0] $end
$var wire 32 e HWDATA [31:0] $end
$var wire 1 2 HWRITE $end
$var wire 1 f ahbl_we $end
$var reg 32 g HADDR_d [31:0] $end
$var reg 32 h HRDATA [31:0] $end
$var reg 1 i HSEL_d $end
$var reg 3 j HSIZE_d [2:0] $end
$var reg 2 k HTRANS_d [1:0] $end
$var reg 1 l HWRITE_d $end
$upscope $end
$upscope $end
$upscope $end
$scope module SoC_tb $end
$scope module MUV $end
$scope module M $end
$scope task ahbl_read $end
$upscope $end
$scope task ahbl_w_write $end
$upscope $end
$upscope $end
$scope module P0 $end
$upscope $end
$scope module S $end
$upscope $end
$scope module S0 $end
$upscope $end
$scope module S1 $end
$upscope $end
$upscope $end
$upscope $end
$scope module ahbl_master_tb $end
$var wire 1 m HWRITE $end
$var wire 32 n HWDATA [31:0] $end
$var wire 2 o HTRANS [1:0] $end
$var wire 3 p HSIZE [2:0] $end
$var wire 32 q HADDR [31:0] $end
$var reg 1 r HCLK $end
$var reg 32 s HRDATA [31:0] $end
$var reg 1 t HREADY $end
$var reg 1 u HRESETn $end
$scope module MASTER $end
$var wire 1 r HCLK $end
$var wire 32 v HRDATA [31:0] $end
$var wire 1 t HREADY $end
$var wire 1 u HRESETn $end
$var reg 32 w HADDR [31:0] $end
$var reg 3 x HSIZE [2:0] $end
$var reg 2 y HTRANS [1:0] $end
$var reg 32 z HWDATA [31:0] $end
$var reg 1 m HWRITE $end
$scope task ahbl_read $end
$var reg 32 { addr [31:0] $end
$var reg 3 | size [2:0] $end
$upscope $end
$scope task ahbl_w_write $end
$var reg 32 } addr [31:0] $end
$var reg 32 ~ data [31:0] $end
$var reg 3 !" size [2:0] $end
$upscope $end
$upscope $end
$upscope $end
$enddefinitions $end
#0
$dumpvars
bx !"
bx ~
bx }
bx |
bx {
bx z
bx y
bx x
bx w
b10111010110111011011111011101111 v
0u
1t
b10111010110111011011111011101111 s
0r
bx q
bx p
bx o
bx n
xm
0l
b0 k
b0 j
0i
bx h
b0 g
0f
bx e
bx d
bx c
bx b
0a
b0 `
b0 _
0^
bx ]
b0 \
0[
bx Z
bx Y
bx X
bx W
b0 V
bx U
b10111010110111011011111011101111 T
bx S
bx R
bx Q
bx P
bx O
0N
b0 M
0L
bx K
b0 J
bx I
bx H
bx G
0F
bx E
bx D
bx C
bx B
bx A
bx @
bx ?
bx >
bx =
bx <
bx ;
bx :
b10111010110111011011111011101111 9
bx 8
b10111010110111011011111011101111 7
16
bx 5
bx 4
bx 3
x2
bx 1
x0
bx /
x.
bx -
x,
bx +
bx *
bx )
1(
1'
1&
0%
0$
bx #
bx "
bx !
$end
#5
1r
1$
#10
0r
0$
#15
1r
1$
#20
0r
0$
#25
1r
1$
#30
0r
0$
#35
1r
1$
#40
0r
0$
#45
1r
1$
#50
0r
0$
#55
1%
1r
1$
#60
0r
0$
#65
xf
x[
xF
xi
xl
bx j
bx k
bx g
x^
xa
bx _
bx `
bx \
xL
xN
bx M
bx J
1r
1$
#70
0r
0$
#75
1r
1$
#80
0r
0$
#85
1r
1$
#90
0r
0$
#95
1r
1$
#100
0r
0$
#105
1u
1r
1$
#110
0r
0$
#115
1r
1$
#120
0r
0$
#125
1r
1$
#130
0r
0$
#135
1r
1$
#140
0r
0$
#145
1r
1$
#150
0r
0$
#155
1r
1$
b1 B
b10001000100010001000100010001000 A
b1000000000000000000000000 @
#156
1.
0,
00
b1 U
12
b1 5
b1 ;
b1 X
b1 c
b1000000000000000000000000 8
b1000000000000000000000000 :
b1000000000000000000000000 C
b1000000000000000000000000 O
b1000000000000000000000000 W
b1000000000000000000000000 b
b10 4
b10 <
b10 D
b10 P
b10 Y
b10 d
#160
0r
0$
#165
bx 7
bx 9
bx T
0f
1[
0F
b1 V
0i
1l
b1 j
b10 k
b1000000000000000000000000 g
1^
1a
b1 _
b10 `
b1000000000000000000000000 \
0L
1N
b10 M
b1000000000000000000000000 J
b0 4
b0 <
b0 D
b0 P
b0 Y
b0 d
b10001000100010001000100010001000 3
b10001000100010001000100010001000 =
b10001000100010001000100010001000 E
b10001000100010001000100010001000 Z
b10001000100010001000100010001000 e
1r
1$
#167
b10 B
b10011001100110011001100110011001 A
b100000000000000000000000000000 @
#170
0r
0$
#175
0[
b0 M
b0 `
b0 k
1r
1$
#176
0.
1,
b10 U
b10 5
b10 ;
b10 X
b10 c
b100000000000000000000000000000 8
b100000000000000000000000000000 :
b100000000000000000000000000000 C
b100000000000000000000000000000 O
b100000000000000000000000000000 W
b100000000000000000000000000000 b
b10 4
b10 <
b10 D
b10 P
b10 Y
b10 d
#180
0r
0$
#185
1f
b10 V
1i
b10 j
b10 k
b100000000000000000000000000000 g
0^
b10 _
b10 `
b100000000000000000000000000000 \
b10 M
b100000000000000000000000000000 J
b0 4
b0 <
b0 D
b0 P
b0 Y
b0 d
b10011001100110011001100110011001 3
b10011001100110011001100110011001 =
b10011001100110011001100110011001 E
b10011001100110011001100110011001 Z
b10011001100110011001100110011001 e
1r
1$
#187
b10010001101000101011001111000 A
b1000001000000000000000000000000 @
#190
0r
0$
#195
0f
b0 M
b0 `
b0 k
1r
1$
#196
0,
10
b100 U
b1000001000000000000000000000000 8
b1000001000000000000000000000000 :
b1000001000000000000000000000000 C
b1000001000000000000000000000000 O
b1000001000000000000000000000000 W
b1000001000000000000000000000000 b
b10 4
b10 <
b10 D
b10 P
b10 Y
b10 d
#200
0r
0$
#205
1F
b100 V
0i
b10 k
b1000001000000000000000000000000 g
b10 `
b1000001000000000000000000000000 \
1L
b10 M
b1000001000000000000000000000000 J
b0 4
b0 <
b0 D
b0 P
b0 Y
b0 d
b10010001101000101011001111000 3
b10010001101000101011001111000 =
b10010001101000101011001111000 E
b10010001101000101011001111000 Z
b10010001101000101011001111000 e
1r
1$
b1 !"
b10001000100010001000100010001000 ~
b1000000000000000000000000 }
#206
1m
b1 p
b1 x
b1000000000000000000000000 q
b1000000000000000000000000 w
b10 o
b10 y
#207
b10010001101000101011001110100 A
b1000010000000000000000000000000 @
#210
0r
0$
#215
0F
b10010001101000101011001111000 "
b10010001101000101011001111000 *
b10010001101000101011001111000 H
b0 M
b0 `
b0 k
b0 o
b0 y
b10001000100010001000100010001000 n
b10001000100010001000100010001000 z
1r
1$
#216
b1000010000000000000000000000000 8
b1000010000000000000000000000000 :
b1000010000000000000000000000000 C
b1000010000000000000000000000000 O
b1000010000000000000000000000000 W
b1000010000000000000000000000000 b
b10 4
b10 <
b10 D
b10 P
b10 Y
b10 d
#217
b10 !"
b10011001100110011001100110011001 ~
b100000000000000000000000000000 }
#220
0r
0$
#225
1F
b10 k
b1000010000000000000000000000000 g
b10 `
b1000010000000000000000000000000 \
b10 M
b1000010000000000000000000000000 J
b0 4
b0 <
b0 D
b0 P
b0 Y
b0 d
b10010001101000101011001110100 3
b10010001101000101011001110100 =
b10010001101000101011001110100 E
b10010001101000101011001110100 Z
b10010001101000101011001110100 e
1r
1$
#226
b10 p
b10 x
b100000000000000000000000000000 q
b100000000000000000000000000000 w
b10 o
b10 y
#227
b10010001101000101011001111001 A
b1000000000000000000000000000000 @
#230
0r
0$
#235
0F
b10010001101000101011001110100 !
b10010001101000101011001110100 )
b10010001101000101011001110100 I
b0 M
b0 `
b0 k
b0 o
b0 y
b10011001100110011001100110011001 n
b10011001100110011001100110011001 z
1r
1$
#236
b1000000000000000000000000000000 8
b1000000000000000000000000000000 :
b1000000000000000000000000000000 C
b1000000000000000000000000000000 O
b1000000000000000000000000000000 W
b1000000000000000000000000000000 b
b10 4
b10 <
b10 D
b10 P
b10 Y
b10 d
#237
b10010001101000101011001111000 ~
b1000001000000000000000000000000 }
#240
0r
0$
#245
1F
b10 k
b1000000000000000000000000000000 g
b10 `
b1000000000000000000000000000000 \
b10 M
b1000000000000000000000000000000 J
b0 4
b0 <
b0 D
b0 P
b0 Y
b0 d
b10010001101000101011001111001 3
b10010001101000101011001111001 =
b10010001101000101011001111001 E
b10010001101000101011001111001 Z
b10010001101000101011001111001 e
1r
1$
#246
b1000001000000000000000000000000 q
b1000001000000000000000000000000 w
b10 o
b10 y
#247
b10 ?
b1000000000000000000000000 >
#250
0r
0$
#255
0F
b10010001101000101011001111001 #
b10010001101000101011001111001 +
b10010001101000101011001111001 G
b0 M
b0 `
b0 k
b0 o
b0 y
b10010001101000101011001111000 n
b10010001101000101011001111000 z
1r
1$
#256
1.
00
b1 U
02
b1000000000000000000000000 8
b1000000000000000000000000 :
b1000000000000000000000000 C
b1000000000000000000000000 O
b1000000000000000000000000 W
b1000000000000000000000000 b
b10 4
b10 <
b10 D
b10 P
b10 Y
b10 d
#257
b10010001101000101011001110100 ~
b1000010000000000000000000000000 }
#260
0r
0$
#265
1[
b1 V
0l
b10 k
b1000000000000000000000000 g
1^
0a
b10 `
b1000000000000000000000000 \
0L
0N
b10 M
b1000000000000000000000000 J
b0 4
b0 <
b0 D
b0 P
b0 Y
b0 d
1r
1$
#266
b1000010000000000000000000000000 q
b1000010000000000000000000000000 w
b10 o
b10 y
#270
0r
0$
#271
b1000001000000000000000000000000 >
#275
0[
b1000100010001000xxxxxxxxxxxxxxxx 7
b1000100010001000xxxxxxxxxxxxxxxx 9
b1000100010001000xxxxxxxxxxxxxxxx T
b1000100010001000xxxxxxxxxxxxxxxx /
b1000100010001000xxxxxxxxxxxxxxxx S
b1000100010001000xxxxxxxxxxxxxxxx ]
b0 M
b0 `
b0 k
b0 o
b0 y
b10010001101000101011001110100 n
b10010001101000101011001110100 z
1r
1$
#276
0.
10
b100 U
b1000001000000000000000000000000 8
b1000001000000000000000000000000 :
b1000001000000000000000000000000 C
b1000001000000000000000000000000 O
b1000001000000000000000000000000 W
b1000001000000000000000000000000 b
b10 4
b10 <
b10 D
b10 P
b10 Y
b10 d
#277
b10010001101000101011001111001 ~
b1000000000000000000000000000000 }
#280
0r
0$
#285
bx 7
bx 9
bx T
1F
b100 V
b10 k
b1000001000000000000000000000000 g
0^
b10 `
b1000001000000000000000000000000 \
1L
b10 M
b1000001000000000000000000000000 J
b0 4
b0 <
b0 D
b0 P
b0 Y
b0 d
1r
1$
#286
b1000000000000000000000000000000 q
b1000000000000000000000000000000 w
b10 o
b10 y
#290
0r
0$
#291
b1000010000000000000000000000000 >
#295
b10010001101000101011001111000 7
b10010001101000101011001111000 9
b10010001101000101011001111000 T
0F
b10010001101000101011001111000 1
b10010001101000101011001111000 K
b10010001101000101011001111000 Q
b0 M
b0 `
b0 k
b0 o
b0 y
b10010001101000101011001111001 n
b10010001101000101011001111001 z
1r
1$
#296
b1000010000000000000000000000000 8
b1000010000000000000000000000000 :
b1000010000000000000000000000000 C
b1000010000000000000000000000000 O
b1000010000000000000000000000000 W
b1000010000000000000000000000000 b
b10 4
b10 <
b10 D
b10 P
b10 Y
b10 d
#297
b10 |
b1000000000000000000000000 {
#300
0r
0$
#305
1F
b10 k
b1000010000000000000000000000000 g
b10 `
b1000010000000000000000000000000 \
b10 M
b1000010000000000000000000000000 J
b0 4
b0 <
b0 D
b0 P
b0 Y
b0 d
1r
1$
#306
0m
b1000000000000000000000000 q
b1000000000000000000000000 w
b10 o
b10 y
#310
0r
0$
#311
b1000000000000000000000000000000 >
#315
b10010001101000101011001110100 7
b10010001101000101011001110100 9
b10010001101000101011001110100 T
0F
b10010001101000101011001110100 1
b10010001101000101011001110100 K
b10010001101000101011001110100 Q
b0 M
b0 `
b0 k
b0 o
b0 y
1r
1$
#316
b1000000000000000000000000000000 8
b1000000000000000000000000000000 :
b1000000000000000000000000000000 C
b1000000000000000000000000000000 O
b1000000000000000000000000000000 W
b1000000000000000000000000000000 b
b10 4
b10 <
b10 D
b10 P
b10 Y
b10 d
#320
0r
0$
#321
b1000001000000000000000000000000 {
#325
1F
b10 k
b1000000000000000000000000000000 g
b10 `
b1000000000000000000000000000000 \
b10 M
b1000000000000000000000000000000 J
b0 4
b0 <
b0 D
b0 P
b0 Y
b0 d
1r
1$
#326
b1000001000000000000000000000000 q
b1000001000000000000000000000000 w
b10 o
b10 y
#330
0r
0$
#331
b0 ?
b100000000000000000000000000000 >
#335
b10010001101000101011001111001 7
b10010001101000101011001111001 9
b10010001101000101011001111001 T
0F
b10010001101000101011001111001 1
b10010001101000101011001111001 K
b10010001101000101011001111001 Q
b0 M
b0 `
b0 k
b0 o
b0 y
1r
1$
#336
1,
00
b10 U
b0 5
b0 ;
b0 X
b0 c
b100000000000000000000000000000 8
b100000000000000000000000000000 :
b100000000000000000000000000000 C
b100000000000000000000000000000 O
b100000000000000000000000000000 W
b100000000000000000000000000000 b
b10 4
b10 <
b10 D
b10 P
b10 Y
b10 d
#340
0r
0$
#341
b1000010000000000000000000000000 {
#345
bx 7
bx 9
bx T
1f
b10 V
1i
b0 j
b10 k
b100000000000000000000000000000 g
b0 _
b10 `
b100000000000000000000000000000 \
0L
b10 M
b100000000000000000000000000000 J
b0 4
b0 <
b0 D
b0 P
b0 Y
b0 d
1r
1$
#346
b1000010000000000000000000000000 q
b1000010000000000000000000000000 w
b10 o
b10 y
#350
0r
0$
#355
b10011001 7
b10011001 9
b10011001 T
0f
b10011001 -
b10011001 R
b10011001 h
b0 M
b0 `
b0 k
b0 o
b0 y
1r
1$
#360
0r
0$
#361
b1000000000000000000000000000000 {
#365
1r
1$
#366
b1000000000000000000000000000000 q
b1000000000000000000000000000000 w
b10 o
b10 y
#370
0r
0$
#375
b0 o
b0 y
1r
1$
#380
0r
0$
#381
b0 |
b100000000000000000000000000000 {
#385
1r
1$
#386
b0 p
b0 x
b100000000000000000000000000000 q
b100000000000000000000000000000 w
b10 o
b10 y
#390
0r
0$
#395
b0 o
b0 y
1r
1$
